<svg xmlns="http://www.w3.org/2000/svg" viewBox="0 0 512 512">
  <path d="M284.29 256L506.14 34.14a20 20 0 10-28.28-28.28L256 227.72 34.14 5.86A20 20 0 105.86 34.14L227.7 256 5.87 477.86a20 20 0 1028.28 28.28L256 284.3l221.86 221.85c3.9 3.9 9.02 5.86 14.14 5.86s10.24-1.95 14.14-5.86a20 20 0 000-28.28L284.3 256z"/>
</svg>
