<svg xmlns="http://www.w3.org/2000/svg" viewBox="0 0 477.87 477.87">
  <path d="M187.73 0H51.2a17.07 17.07 0 00-17.07 17.07V460.8c0 9.43 7.64 17.07 17.07 17.07h136.53c9.43 0 17.07-7.64 17.07-17.07V17.07C204.8 7.64 197.16 0 187.73 0zM426.67 0H290.13a17.07 17.07 0 00-17.06 17.07V460.8c0 9.43 7.64 17.07 17.06 17.07h136.54c9.42 0 17.06-7.64 17.06-17.07V17.07C443.73 7.64 436.1 0 426.67 0z"/>
</svg>
