<svg xmlns="http://www.w3.org/2000/svg" viewBox="0 0 60 60">
  <path fill-rule="nonzero" d="M25.5 51L42.1 9.3h-6.6L33.9 13h-9c-1.7-2.9-4.8-4.5-9.2-4.5C8.7 8.6 5 12.8 5 19.2 5 25.8 8.7 30 15.7 30c7 0 10.6-4.1 10.6-10.7v-1.4H32L18.7 51h6.8zm-9.8-26.2c-3.3 0-4.1-2.6-4.1-5.6 0-3 .8-5.5 4-5.5 3.5 0 4.2 2.5 4.2 5.5s-.8 5.6-4 5.6zm29.4 26.9c7 0 10.5-4.1 10.5-10.7 0-6.5-3.5-10.6-10.6-10.6-7 0-10.6 4.2-10.6 10.6 0 6.6 3.6 10.7 10.7 10.7zm0-5C41.7 46.7 41 44 41 41s.8-5.5 4-5.5c3.4 0 4.1 2.6 4.1 5.5 0 3-.7 5.7-4 5.7z"/>
</svg>
