<svg xmlns="http://www.w3.org/2000/svg" viewBox="0 0 320 320">
  <path d="M295.84 146.05l-256-144A15.99 15.99 0 0016 16v288a15.99 15.99 0 0023.84 13.95l256-144c5.02-2.85 8.16-8.16 8.16-13.95s-3.14-11.1-8.16-13.95z"/>
</svg>
