<svg xmlns="http://www.w3.org/2000/svg" viewBox="0 0 60 60">
  <g fill-rule="evenodd">
    <path d="M27.2 8.6H13.1a.9.9 0 01-.9-.9c0-.5.4-.9.9-.9h14.1c.5 0 .9.4.9 1 0 .4-.4.8-.9.8zm0 4.4H13.1a.9.9 0 01-.9-1c0-.4.4-.8.9-.8h14.1c.5 0 .9.4.9.9s-.4.9-.9.9zm-9.9 18.6h-4.7v-1.2l1.5-.1v-4.6l-1.5-.2v-1l2-.6h1.1v6.4h1.6v1.3zM10 4.6v35.3h13l.4-3.6H13.2a.9.9 0 01-1-1c0-.4.5-.8 1-.8h10.4l2.7-20.2 4 .6V4.6H10z"/>
    <path d="M44.8 24l-14-2a1 1 0 01-.7-1c0-.5.5-.8 1-.8l13.8 1.9c.5 0 .9.5.8 1 0 .5-.4.8-.9.8zm-.5 4.4h-.1l-14-1.9a1 1 0 01-.7-1c.1-.5.5-.9 1-.8l14 1.9c.4 0 .7.5.7 1-.1.4-.5.8-.9.8zm-2.6 23.4l-14-1.9a1 1 0 01-.7-1c0-.5.5-.8 1-.8L41.8 50c.5 0 .9.5.8 1 0 .5-.4.8-.9.8zm-14-8c1-.8 3.3-2.4 3.4-3.8.1-.8-.3-1.2-1.2-1.3l-1.4-.2.2-1.2 2 .1c1.4.2 2.5.8 2.3 2.5-.2 1.7-2.2 3-3.5 4l3.2.5-.1 1.3-5.1-.7.1-1.3zm.9-26.3L24 53.1l20 2.7 4.3-35.6-19.7-2.7z"/>
  </g>
</svg>
